/home/abhijtih/final_project/distributedcuckooonredis/CuckooOnRedis/src/main/java/cuckooonredis/CuckooClient.java
/home/abhijtih/final_project/distributedcuckooonredis/CuckooOnRedis/src/main/java/cuckooutil/Serializer.java
/home/abhijtih/final_project/distributedcuckooonredis/CuckooOnRedis/src/main/java/Test.java
/home/abhijtih/final_project/distributedcuckooonredis/CuckooOnRedis/src/main/java/cuckooutil/ClusterOps.java
/home/abhijtih/final_project/distributedcuckooonredis/CuckooOnRedis/src/main/java/cuckooonredis/CuckooFilter.java
/home/abhijtih/final_project/distributedcuckooonredis/CuckooOnRedis/src/main/java/cuckooutil/Message.java
/home/abhijtih/final_project/distributedcuckooonredis/CuckooOnRedis/src/main/java/cuckooutil/Data.java
/home/abhijtih/final_project/distributedcuckooonredis/CuckooOnRedis/src/main/java/cuckooutil/Bucket.java
/home/abhijtih/final_project/distributedcuckooonredis/CuckooOnRedis/src/main/java/cuckooutil/FilterCommunication.java
/home/abhijtih/final_project/distributedcuckooonredis/CuckooOnRedis/src/main/java/cuckooutil/Node.java
